{
  "project_info": {
    "project_number": "1019178046442",
    "project_id": "ivanapps-4cf96",
    "storage_bucket": "ivanapps-4cf96.appspot.com"
  },
  "client": [
    {
      "client_info": {
        "mobilesdk_app_id": "1:1019178046442:android:063c841e55b246a6995893",
        "android_client_info": {
          "package_name": "com.beawergames.game"
        }
      },
      "oauth_client": [
        {
          "client_id": "1019178046442-77kasvekln8p1c0u8uqha6lskg5m0vai.apps.googleusercontent.com",
          "client_type": 3
        }
      ],
      "api_key": [
        {
          "current_key": "AIzaSyD943f2P-IgHnbf5HJTwYpfaDelQnDhuGs"
        }
      ],
      "services": {
        "appinvite_service": {
          "other_platform_oauth_client": [
            {
              "client_id": "1019178046442-77kasvekln8p1c0u8uqha6lskg5m0vai.apps.googleusercontent.com",
              "client_type": 3
            }
          ]
        }
      }
    },
    {
      "client_info": {
        "mobilesdk_app_id": "1:1019178046442:android:4fef80b83620d52b995893",
        "android_client_info": {
          "package_name": "com.beawergames.jumpergame"
        }
      },
      "oauth_client": [
        {
          "client_id": "1019178046442-77kasvekln8p1c0u8uqha6lskg5m0vai.apps.googleusercontent.com",
          "client_type": 3
        }
      ],
      "api_key": [
        {
          "current_key": "AIzaSyD943f2P-IgHnbf5HJTwYpfaDelQnDhuGs"
        }
      ],
      "services": {
        "appinvite_service": {
          "other_platform_oauth_client": [
            {
              "client_id": "1019178046442-77kasvekln8p1c0u8uqha6lskg5m0vai.apps.googleusercontent.com",
              "client_type": 3
            }
          ]
        }
      }
    },
    {
      "client_info": {
        "mobilesdk_app_id": "1:1019178046442:android:97ca954cd34cf9dc995893",
        "android_client_info": {
          "package_name": "com.beawergames.rhythmgame"
        }
      },
      "oauth_client": [
        {
          "client_id": "1019178046442-77kasvekln8p1c0u8uqha6lskg5m0vai.apps.googleusercontent.com",
          "client_type": 3
        }
      ],
      "api_key": [
        {
          "current_key": "AIzaSyD943f2P-IgHnbf5HJTwYpfaDelQnDhuGs"
        }
      ],
      "services": {
        "appinvite_service": {
          "other_platform_oauth_client": [
            {
              "client_id": "1019178046442-77kasvekln8p1c0u8uqha6lskg5m0vai.apps.googleusercontent.com",
              "client_type": 3
            }
          ]
        }
      }
    },
    {
      "client_info": {
        "mobilesdk_app_id": "1:1019178046442:android:ca8fbd4b798deafe995893",
        "android_client_info": {
          "package_name": "com.beawergames.towergame"
        }
      },
      "oauth_client": [
        {
          "client_id": "1019178046442-77kasvekln8p1c0u8uqha6lskg5m0vai.apps.googleusercontent.com",
          "client_type": 3
        }
      ],
      "api_key": [
        {
          "current_key": "AIzaSyD943f2P-IgHnbf5HJTwYpfaDelQnDhuGs"
        }
      ],
      "services": {
        "appinvite_service": {
          "other_platform_oauth_client": [
            {
              "client_id": "1019178046442-77kasvekln8p1c0u8uqha6lskg5m0vai.apps.googleusercontent.com",
              "client_type": 3
            }
          ]
        }
      }
    },
    {
      "client_info": {
        "mobilesdk_app_id": "1:1019178046442:android:fd350b9f6f3e67da995893",
        "android_client_info": {
          "package_name": "com.example.archeryapp"
        }
      },
      "oauth_client": [
        {
          "client_id": "1019178046442-77kasvekln8p1c0u8uqha6lskg5m0vai.apps.googleusercontent.com",
          "client_type": 3
        }
      ],
      "api_key": [
        {
          "current_key": "AIzaSyD943f2P-IgHnbf5HJTwYpfaDelQnDhuGs"
        }
      ],
      "services": {
        "appinvite_service": {
          "other_platform_oauth_client": [
            {
              "client_id": "1019178046442-77kasvekln8p1c0u8uqha6lskg5m0vai.apps.googleusercontent.com",
              "client_type": 3
            }
          ]
        }
      }
    },
    {
      "client_info": {
        "mobilesdk_app_id": "1:1019178046442:android:fafc129078197fd4995893",
        "android_client_info": {
          "package_name": "com.example.aviator"
        }
      },
      "oauth_client": [
        {
          "client_id": "1019178046442-77kasvekln8p1c0u8uqha6lskg5m0vai.apps.googleusercontent.com",
          "client_type": 3
        }
      ],
      "api_key": [
        {
          "current_key": "AIzaSyD943f2P-IgHnbf5HJTwYpfaDelQnDhuGs"
        }
      ],
      "services": {
        "appinvite_service": {
          "other_platform_oauth_client": [
            {
              "client_id": "1019178046442-77kasvekln8p1c0u8uqha6lskg5m0vai.apps.googleusercontent.com",
              "client_type": 3
            }
          ]
        }
      }
    },
    {
      "client_info": {
        "mobilesdk_app_id": "1:1019178046442:android:050492c89e7d3585995893",
        "android_client_info": {
          "package_name": "com.example.betcardsapp"
        }
      },
      "oauth_client": [
        {
          "client_id": "1019178046442-77kasvekln8p1c0u8uqha6lskg5m0vai.apps.googleusercontent.com",
          "client_type": 3
        }
      ],
      "api_key": [
        {
          "current_key": "AIzaSyD943f2P-IgHnbf5HJTwYpfaDelQnDhuGs"
        }
      ],
      "services": {
        "appinvite_service": {
          "other_platform_oauth_client": [
            {
              "client_id": "1019178046442-77kasvekln8p1c0u8uqha6lskg5m0vai.apps.googleusercontent.com",
              "client_type": 3
            }
          ]
        }
      }
    },
    {
      "client_info": {
        "mobilesdk_app_id": "1:1019178046442:android:ae17a72933b5ffaa995893",
        "android_client_info": {
          "package_name": "com.example.game2024"
        }
      },
      "oauth_client": [
        {
          "client_id": "1019178046442-77kasvekln8p1c0u8uqha6lskg5m0vai.apps.googleusercontent.com",
          "client_type": 3
        }
      ],
      "api_key": [
        {
          "current_key": "AIzaSyD943f2P-IgHnbf5HJTwYpfaDelQnDhuGs"
        }
      ],
      "services": {
        "appinvite_service": {
          "other_platform_oauth_client": [
            {
              "client_id": "1019178046442-77kasvekln8p1c0u8uqha6lskg5m0vai.apps.googleusercontent.com",
              "client_type": 3
            }
          ]
        }
      }
    },
    {
      "client_info": {
        "mobilesdk_app_id": "1:1019178046442:android:68fbc35c7a4dc689995893",
        "android_client_info": {
          "package_name": "com.example.guessthesuit"
        }
      },
      "oauth_client": [
        {
          "client_id": "1019178046442-77kasvekln8p1c0u8uqha6lskg5m0vai.apps.googleusercontent.com",
          "client_type": 3
        }
      ],
      "api_key": [
        {
          "current_key": "AIzaSyD943f2P-IgHnbf5HJTwYpfaDelQnDhuGs"
        }
      ],
      "services": {
        "appinvite_service": {
          "other_platform_oauth_client": [
            {
              "client_id": "1019178046442-77kasvekln8p1c0u8uqha6lskg5m0vai.apps.googleusercontent.com",
              "client_type": 3
            }
          ]
        }
      }
    },
    {
      "client_info": {
        "mobilesdk_app_id": "1:1019178046442:android:7360e4071dbc45a6995893",
        "android_client_info": {
          "package_name": "com.example.healthadviser"
        }
      },
      "oauth_client": [
        {
          "client_id": "1019178046442-77kasvekln8p1c0u8uqha6lskg5m0vai.apps.googleusercontent.com",
          "client_type": 3
        }
      ],
      "api_key": [
        {
          "current_key": "AIzaSyD943f2P-IgHnbf5HJTwYpfaDelQnDhuGs"
        }
      ],
      "services": {
        "appinvite_service": {
          "other_platform_oauth_client": [
            {
              "client_id": "1019178046442-77kasvekln8p1c0u8uqha6lskg5m0vai.apps.googleusercontent.com",
              "client_type": 3
            }
          ]
        }
      }
    },
    {
      "client_info": {
        "mobilesdk_app_id": "1:1019178046442:android:a66480e0b4078ecd995893",
        "android_client_info": {
          "package_name": "com.example.katarinfo"
        }
      },
      "oauth_client": [
        {
          "client_id": "1019178046442-77kasvekln8p1c0u8uqha6lskg5m0vai.apps.googleusercontent.com",
          "client_type": 3
        }
      ],
      "api_key": [
        {
          "current_key": "AIzaSyD943f2P-IgHnbf5HJTwYpfaDelQnDhuGs"
        }
      ],
      "services": {
        "appinvite_service": {
          "other_platform_oauth_client": [
            {
              "client_id": "1019178046442-77kasvekln8p1c0u8uqha6lskg5m0vai.apps.googleusercontent.com",
              "client_type": 3
            }
          ]
        }
      }
    },
    {
      "client_info": {
        "mobilesdk_app_id": "1:1019178046442:android:521a0dceff4b2e0e995893",
        "android_client_info": {
          "package_name": "com.example.meditationapp"
        }
      },
      "oauth_client": [
        {
          "client_id": "1019178046442-77kasvekln8p1c0u8uqha6lskg5m0vai.apps.googleusercontent.com",
          "client_type": 3
        }
      ],
      "api_key": [
        {
          "current_key": "AIzaSyD943f2P-IgHnbf5HJTwYpfaDelQnDhuGs"
        }
      ],
      "services": {
        "appinvite_service": {
          "other_platform_oauth_client": [
            {
              "client_id": "1019178046442-77kasvekln8p1c0u8uqha6lskg5m0vai.apps.googleusercontent.com",
              "client_type": 3
            }
          ]
        }
      }
    },
    {
      "client_info": {
        "mobilesdk_app_id": "1:1019178046442:android:cc5c40efbbf057e6995893",
        "android_client_info": {
          "package_name": "com.example.memorizeapp"
        }
      },
      "oauth_client": [
        {
          "client_id": "1019178046442-77kasvekln8p1c0u8uqha6lskg5m0vai.apps.googleusercontent.com",
          "client_type": 3
        }
      ],
      "api_key": [
        {
          "current_key": "AIzaSyD943f2P-IgHnbf5HJTwYpfaDelQnDhuGs"
        }
      ],
      "services": {
        "appinvite_service": {
          "other_platform_oauth_client": [
            {
              "client_id": "1019178046442-77kasvekln8p1c0u8uqha6lskg5m0vai.apps.googleusercontent.com",
              "client_type": 3
            }
          ]
        }
      }
    },
    {
      "client_info": {
        "mobilesdk_app_id": "1:1019178046442:android:22a13471595ee00e995893",
        "android_client_info": {
          "package_name": "com.example.minesweeperapp"
        }
      },
      "oauth_client": [
        {
          "client_id": "1019178046442-77kasvekln8p1c0u8uqha6lskg5m0vai.apps.googleusercontent.com",
          "client_type": 3
        }
      ],
      "api_key": [
        {
          "current_key": "AIzaSyD943f2P-IgHnbf5HJTwYpfaDelQnDhuGs"
        }
      ],
      "services": {
        "appinvite_service": {
          "other_platform_oauth_client": [
            {
              "client_id": "1019178046442-77kasvekln8p1c0u8uqha6lskg5m0vai.apps.googleusercontent.com",
              "client_type": 3
            }
          ]
        }
      }
    },
    {
      "client_info": {
        "mobilesdk_app_id": "1:1019178046442:android:d44f7c78a1ccc2ce995893",
        "android_client_info": {
          "package_name": "com.example.myapplication"
        }
      },
      "oauth_client": [
        {
          "client_id": "1019178046442-77kasvekln8p1c0u8uqha6lskg5m0vai.apps.googleusercontent.com",
          "client_type": 3
        }
      ],
      "api_key": [
        {
          "current_key": "AIzaSyD943f2P-IgHnbf5HJTwYpfaDelQnDhuGs"
        }
      ],
      "services": {
        "appinvite_service": {
          "other_platform_oauth_client": [
            {
              "client_id": "1019178046442-77kasvekln8p1c0u8uqha6lskg5m0vai.apps.googleusercontent.com",
              "client_type": 3
            }
          ]
        }
      }
    },
    {
      "client_info": {
        "mobilesdk_app_id": "1:1019178046442:android:5a7205f8153e9bd2995893",
        "android_client_info": {
          "package_name": "com.example.nbanewsapp"
        }
      },
      "oauth_client": [
        {
          "client_id": "1019178046442-77kasvekln8p1c0u8uqha6lskg5m0vai.apps.googleusercontent.com",
          "client_type": 3
        }
      ],
      "api_key": [
        {
          "current_key": "AIzaSyD943f2P-IgHnbf5HJTwYpfaDelQnDhuGs"
        }
      ],
      "services": {
        "appinvite_service": {
          "other_platform_oauth_client": [
            {
              "client_id": "1019178046442-77kasvekln8p1c0u8uqha6lskg5m0vai.apps.googleusercontent.com",
              "client_type": 3
            }
          ]
        }
      }
    },
    {
      "client_info": {
        "mobilesdk_app_id": "1:1019178046442:android:0c204699147bb7ee995893",
        "android_client_info": {
          "package_name": "com.example.newbetmanager"
        }
      },
      "oauth_client": [
        {
          "client_id": "1019178046442-77kasvekln8p1c0u8uqha6lskg5m0vai.apps.googleusercontent.com",
          "client_type": 3
        }
      ],
      "api_key": [
        {
          "current_key": "AIzaSyD943f2P-IgHnbf5HJTwYpfaDelQnDhuGs"
        }
      ],
      "services": {
        "appinvite_service": {
          "other_platform_oauth_client": [
            {
              "client_id": "1019178046442-77kasvekln8p1c0u8uqha6lskg5m0vai.apps.googleusercontent.com",
              "client_type": 3
            }
          ]
        }
      }
    },
    {
      "client_info": {
        "mobilesdk_app_id": "1:1019178046442:android:e27e60c6b90ab5ff995893",
        "android_client_info": {
          "package_name": "com.example.newscollector"
        }
      },
      "oauth_client": [
        {
          "client_id": "1019178046442-77kasvekln8p1c0u8uqha6lskg5m0vai.apps.googleusercontent.com",
          "client_type": 3
        }
      ],
      "api_key": [
        {
          "current_key": "AIzaSyD943f2P-IgHnbf5HJTwYpfaDelQnDhuGs"
        }
      ],
      "services": {
        "appinvite_service": {
          "other_platform_oauth_client": [
            {
              "client_id": "1019178046442-77kasvekln8p1c0u8uqha6lskg5m0vai.apps.googleusercontent.com",
              "client_type": 3
            }
          ]
        }
      }
    },
    {
      "client_info": {
        "mobilesdk_app_id": "1:1019178046442:android:8af91bc21de6124d995893",
        "android_client_info": {
          "package_name": "com.example.slotsapp"
        }
      },
      "oauth_client": [
        {
          "client_id": "1019178046442-77kasvekln8p1c0u8uqha6lskg5m0vai.apps.googleusercontent.com",
          "client_type": 3
        }
      ],
      "api_key": [
        {
          "current_key": "AIzaSyD943f2P-IgHnbf5HJTwYpfaDelQnDhuGs"
        }
      ],
      "services": {
        "appinvite_service": {
          "other_platform_oauth_client": [
            {
              "client_id": "1019178046442-77kasvekln8p1c0u8uqha6lskg5m0vai.apps.googleusercontent.com",
              "client_type": 3
            }
          ]
        }
      }
    },
    {
      "client_info": {
        "mobilesdk_app_id": "1:1019178046442:android:185225ecc12816b7995893",
        "android_client_info": {
          "package_name": "com.example.snake"
        }
      },
      "oauth_client": [
        {
          "client_id": "1019178046442-77kasvekln8p1c0u8uqha6lskg5m0vai.apps.googleusercontent.com",
          "client_type": 3
        }
      ],
      "api_key": [
        {
          "current_key": "AIzaSyD943f2P-IgHnbf5HJTwYpfaDelQnDhuGs"
        }
      ],
      "services": {
        "appinvite_service": {
          "other_platform_oauth_client": [
            {
              "client_id": "1019178046442-77kasvekln8p1c0u8uqha6lskg5m0vai.apps.googleusercontent.com",
              "client_type": 3
            }
          ]
        }
      }
    },
    {
      "client_info": {
        "mobilesdk_app_id": "1:1019178046442:android:4f681d19a79cffa2995893",
        "android_client_info": {
          "package_name": "com.example.spaceflighter"
        }
      },
      "oauth_client": [
        {
          "client_id": "1019178046442-77kasvekln8p1c0u8uqha6lskg5m0vai.apps.googleusercontent.com",
          "client_type": 3
        }
      ],
      "api_key": [
        {
          "current_key": "AIzaSyD943f2P-IgHnbf5HJTwYpfaDelQnDhuGs"
        }
      ],
      "services": {
        "appinvite_service": {
          "other_platform_oauth_client": [
            {
              "client_id": "1019178046442-77kasvekln8p1c0u8uqha6lskg5m0vai.apps.googleusercontent.com",
              "client_type": 3
            }
          ]
        }
      }
    },
    {
      "client_info": {
        "mobilesdk_app_id": "1:1019178046442:android:bb918903e9fceb6b995893",
        "android_client_info": {
          "package_name": "com.example.sporthistoryapp"
        }
      },
      "oauth_client": [
        {
          "client_id": "1019178046442-77kasvekln8p1c0u8uqha6lskg5m0vai.apps.googleusercontent.com",
          "client_type": 3
        }
      ],
      "api_key": [
        {
          "current_key": "AIzaSyD943f2P-IgHnbf5HJTwYpfaDelQnDhuGs"
        }
      ],
      "services": {
        "appinvite_service": {
          "other_platform_oauth_client": [
            {
              "client_id": "1019178046442-77kasvekln8p1c0u8uqha6lskg5m0vai.apps.googleusercontent.com",
              "client_type": 3
            }
          ]
        }
      }
    },
    {
      "client_info": {
        "mobilesdk_app_id": "1:1019178046442:android:f3d45c2a061d12f3995893",
        "android_client_info": {
          "package_name": "com.example.sportnews"
        }
      },
      "oauth_client": [
        {
          "client_id": "1019178046442-77kasvekln8p1c0u8uqha6lskg5m0vai.apps.googleusercontent.com",
          "client_type": 3
        }
      ],
      "api_key": [
        {
          "current_key": "AIzaSyD943f2P-IgHnbf5HJTwYpfaDelQnDhuGs"
        }
      ],
      "services": {
        "appinvite_service": {
          "other_platform_oauth_client": [
            {
              "client_id": "1019178046442-77kasvekln8p1c0u8uqha6lskg5m0vai.apps.googleusercontent.com",
              "client_type": 3
            }
          ]
        }
      }
    },
    {
      "client_info": {
        "mobilesdk_app_id": "1:1019178046442:android:12194137f6c01587995893",
        "android_client_info": {
          "package_name": "com.example.stretchingsapp"
        }
      },
      "oauth_client": [
        {
          "client_id": "1019178046442-77kasvekln8p1c0u8uqha6lskg5m0vai.apps.googleusercontent.com",
          "client_type": 3
        }
      ],
      "api_key": [
        {
          "current_key": "AIzaSyD943f2P-IgHnbf5HJTwYpfaDelQnDhuGs"
        }
      ],
      "services": {
        "appinvite_service": {
          "other_platform_oauth_client": [
            {
              "client_id": "1019178046442-77kasvekln8p1c0u8uqha6lskg5m0vai.apps.googleusercontent.com",
              "client_type": 3
            }
          ]
        }
      }
    },
    {
      "client_info": {
        "mobilesdk_app_id": "1:1019178046442:android:ab8920e2c533a6fa995893",
        "android_client_info": {
          "package_name": "com.example.teamstats"
        }
      },
      "oauth_client": [
        {
          "client_id": "1019178046442-77kasvekln8p1c0u8uqha6lskg5m0vai.apps.googleusercontent.com",
          "client_type": 3
        }
      ],
      "api_key": [
        {
          "current_key": "AIzaSyD943f2P-IgHnbf5HJTwYpfaDelQnDhuGs"
        }
      ],
      "services": {
        "appinvite_service": {
          "other_platform_oauth_client": [
            {
              "client_id": "1019178046442-77kasvekln8p1c0u8uqha6lskg5m0vai.apps.googleusercontent.com",
              "client_type": 3
            }
          ]
        }
      }
    },
    {
      "client_info": {
        "mobilesdk_app_id": "1:1019178046442:android:2727bf7a95d95b53995893",
        "android_client_info": {
          "package_name": "com.example.tictactoegame"
        }
      },
      "oauth_client": [
        {
          "client_id": "1019178046442-77kasvekln8p1c0u8uqha6lskg5m0vai.apps.googleusercontent.com",
          "client_type": 3
        }
      ],
      "api_key": [
        {
          "current_key": "AIzaSyD943f2P-IgHnbf5HJTwYpfaDelQnDhuGs"
        }
      ],
      "services": {
        "appinvite_service": {
          "other_platform_oauth_client": [
            {
              "client_id": "1019178046442-77kasvekln8p1c0u8uqha6lskg5m0vai.apps.googleusercontent.com",
              "client_type": 3
            }
          ]
        }
      }
    },
    {
      "client_info": {
        "mobilesdk_app_id": "1:1019178046442:android:3a19e00079e660c8995893",
        "android_client_info": {
          "package_name": "com.example.timer"
        }
      },
      "oauth_client": [
        {
          "client_id": "1019178046442-77kasvekln8p1c0u8uqha6lskg5m0vai.apps.googleusercontent.com",
          "client_type": 3
        }
      ],
      "api_key": [
        {
          "current_key": "AIzaSyD943f2P-IgHnbf5HJTwYpfaDelQnDhuGs"
        }
      ],
      "services": {
        "appinvite_service": {
          "other_platform_oauth_client": [
            {
              "client_id": "1019178046442-77kasvekln8p1c0u8uqha6lskg5m0vai.apps.googleusercontent.com",
              "client_type": 3
            }
          ]
        }
      }
    },
    {
      "client_info": {
        "mobilesdk_app_id": "1:1019178046442:android:242253d6d73ad25a995893",
        "android_client_info": {
          "package_name": "com.example.wcschedule"
        }
      },
      "oauth_client": [
        {
          "client_id": "1019178046442-77kasvekln8p1c0u8uqha6lskg5m0vai.apps.googleusercontent.com",
          "client_type": 3
        }
      ],
      "api_key": [
        {
          "current_key": "AIzaSyD943f2P-IgHnbf5HJTwYpfaDelQnDhuGs"
        }
      ],
      "services": {
        "appinvite_service": {
          "other_platform_oauth_client": [
            {
              "client_id": "1019178046442-77kasvekln8p1c0u8uqha6lskg5m0vai.apps.googleusercontent.com",
              "client_type": 3
            }
          ]
        }
      }
    },
    {
      "client_info": {
        "mobilesdk_app_id": "1:1019178046442:android:06f4daee9861a7fe995893",
        "android_client_info": {
          "package_name": "com.example.words"
        }
      },
      "oauth_client": [
        {
          "client_id": "1019178046442-77kasvekln8p1c0u8uqha6lskg5m0vai.apps.googleusercontent.com",
          "client_type": 3
        }
      ],
      "api_key": [
        {
          "current_key": "AIzaSyD943f2P-IgHnbf5HJTwYpfaDelQnDhuGs"
        }
      ],
      "services": {
        "appinvite_service": {
          "other_platform_oauth_client": [
            {
              "client_id": "1019178046442-77kasvekln8p1c0u8uqha6lskg5m0vai.apps.googleusercontent.com",
              "client_type": 3
            }
          ]
        }
      }
    },
    {
      "client_info": {
        "mobilesdk_app_id": "1:1019178046442:android:08e159a9cb4e02d1995893",
        "android_client_info": {
          "package_name": "com.runnergame.game"
        }
      },
      "oauth_client": [
        {
          "client_id": "1019178046442-77kasvekln8p1c0u8uqha6lskg5m0vai.apps.googleusercontent.com",
          "client_type": 3
        }
      ],
      "api_key": [
        {
          "current_key": "AIzaSyD943f2P-IgHnbf5HJTwYpfaDelQnDhuGs"
        }
      ],
      "services": {
        "appinvite_service": {
          "other_platform_oauth_client": [
            {
              "client_id": "1019178046442-77kasvekln8p1c0u8uqha6lskg5m0vai.apps.googleusercontent.com",
              "client_type": 3
            }
          ]
        }
      }
    }
  ],
  "configuration_version": "1"
}